{
    "name": "Repolitica",
    "private": true,
    "version": "0.24.2",
    "description": "Repolitica",
    "dependencies": {
        "underscore": "latest",
        "sails": "0.10.0-rc9",
        "sails-disk": "~0.10.0",
        "sails-mongo": "0.10.0-rc5",
        "prerender-node": "~1.0.4",
        "ejs": "~0.8.4",
        "passport": "0.1.16",
        "passport-local": "~0.1.6",
        "passport-facebook": "latest",
        "grunt": "0.4.2",
        "grunt-sync": "~0.0.4",
        "grunt-contrib-copy": "~0.4.1",
        "grunt-contrib-clean": "~0.4.1",
        "grunt-contrib-concat": "~0.3.0",
        "grunt-sails-linker": "~0.9.5",
        "grunt-contrib-jst": "~0.5.0",
        "grunt-contrib-watch": "~0.4.4",
        "grunt-contrib-uglify": "~0.2.2",
        "grunt-contrib-cssmin": "~0.6.1",
        "grunt-contrib-less": "~0.9.0",
        "grunt-contrib-coffee": "~0.7.0",
        "async": "latest",
        "aws-sdk": "latest",
        "password-generator": "latest",
        "moment": "latest",
        "diacritics": "latest",
        "request": "latest",
        "connect-mongo": "latest",
        "memwatch": "latest"
    },
    "scripts": {
        "start": "node app.js"
    },
    "main": "app.js",
    "repository": "",
    "author": "Repolitica",
    "license": "",
    "subdomain": "repolitica",
    "domains": [
        "repolitica.com.br",
        "www.repolitica.com.br"
    ],
    "engines": {
        "node": "0.10.x"
    }
}
