[
    "Presidente",
    "Vice-presidente",
    "Governador",
    "Vice-governador",
    "Senador",
    "1º Suplente",
    "2º Suplente",
    "Prefeito",
    "Vice-prefeito",
    "Deputado Federal",
    "Deputado Estadual",
    "Deputado Distrital",
    "Vereador"
]