{

    "economia":{
        "0": { "tipo": "Direita", "descricao": "Acredita que a eficiência e a riqueza geradas pela livre competição e os impostos baixos impulsionam a economia e fazem a sociedade como um todo ficar melhor."},
        "1": { "tipo": "Centro-Direita", "descricao": "Acredita num Estado Mínimo que intervém pouco na economia, mas defende a atuação estatal para evitar injustiças."},
        "2": { "tipo": "Centro", "descricao": "Acredita que o Estado pode se equilibrar entre não onerar a economia com impostos altos e redistribuir renda."},
        "3": { "tipo": "Centro-Esquerda", "descricao": "Acredita que o objetivo principal do Estado é equilibrar a balança a favor dos menos favorecidos, mas pondera que nem sempre o livre mercado é um inimigo."},
        "4": { "tipo": "Esquerda", "descricao": "Acredita que as injustiças sociais geradas pelo mercado só podem ser remediadas com um Estado forte, que garanta os direitos dos trabalhadores e redistribua renda através de impostos mais altos."}
    },
    "sociedade":{
        "0": { "tipo": "Conservador", "descricao": "Acredita que certos hábitos vão contra a família, a moral e os bons costumes, e cabe ao Estado protegê-los."},
        "1": { "tipo": "Meio termo", "descricao": "Acredita na liberdade individual,  mas em alguns casos o Estado tem o dever de intervir."},
        "2": { "tipo": "Liberal", "descricao": "Acredita que o Estado não deve interferir nas escolhas e opiniões de cada indivíduo."}
    },
    "radicalismo":{
        "0": { "tipo": "Radical", "descricao": "Defende seus ideais a todo custo."},
        "1": { "tipo": "Meio termo", "descricao": "Nem sempre admite de negociar com adversários"},
        "2": { "tipo": "Moderado", "descricao": "Busca conciliar com pontos de vista diferentes."}
    },
    "questoes":{
        "0": "Sem resposta",
        "1": "Discorda",
        "2": "Discorda parcialmente",
        "3": "Concorda parcialmente",
        "4": "Concorda"
    },
    "statusmudanca":{
        "0": "Pendente",
        "1": "Atual",
        "2": "Substituído",
        "3": "Rejeitado"
    }
}